{"count":386,"next":"https://wger.de/api/v2/exercise/?limit=20&offset=20","previous":null,"results":[{"id":345,"uuid":"c788d643-150a-4ac7-97ef-84643c6419bf","name":"2 Handed Kettlebell Swing","exercise_base":9,"description":"<p>Two Handed Russian Style Kettlebell swing</p>","creation_date":"2015-08-03","category":10,"muscles":[],"muscles_secondary":[],"equipment":[10],"language":2,"license":2,"license_author":"deusinvictus","variations":[345,249],"author_history":["deusinvictus"]},{"id":1061,"uuid":"60d8018d-296f-4c62-a80b-f609a25d34ea","name":"Abdominal Stabilization","exercise_base":56,"description":"","creation_date":"2022-10-11","category":10,"muscles":[6],"muscles_secondary":[14],"equipment":[4],"language":2,"license":2,"license_author":"wger.de","variations":[],"author_history":["wger.de"]},{"id":174,"uuid":"99881bdd-43d7-4c3b-82ed-9c187d0455b7","name":"Abduktoren-Maschine","exercise_base":12,"description":"<ul>\n<li>in eine aufrechte Position setzen, bei der die Beine hüftbreit geöffnet sind</li>\n<li>den Rücken, die Knie und die Oberschenkelaußenseite an die jeweiligen Polster pressen</li>\n<li>mit den Händen an den Griffen festhalten</li>\n<li>die Oberschenkel bis zum Anschlagpunkt der Hebelarme auseinander drücken</li>\n<li>danach die Beine wieder zusammen führen</li>\n<li>das Gesäß nicht vom Sitz abheben</li>\n<li>beim Auseinanderdrücken der Hebelarme aus- und beim Zusammenführen einatmen</li>\n</ul>","creation_date":"2013-07-19","category":9,"muscles":[8],"muscles_secondary":[],"equipment":[],"language":1,"license":1,"license_author":"flori","variations":[],"author_history":["flori"]},{"id":228,"uuid":"880bff63-6798-4ffc-a818-b2a1ccfec0f7","name":"Arnold Press","exercise_base":20,"description":"<p>Zwei Kurzhanteln mit den Handflächen nach innen vor der Brust halten, Ellbogen unterhalb der Handgelenke.</p>\n<p>Ellbogen nach außen bringen und Hanteln über den Kopf heben. Drehung kommt aus dem Ellbogen, nicht aus den Armen!</p>\n<p>Wenn die Arme durchgestreckt sind, die gleiche Bewegung rückwärts ausführen.</p>","creation_date":"2014-03-09","category":13,"muscles":[],"muscles_secondary":[],"equipment":[3],"language":1,"license":3,"license_author":"bloody_disgrace","variations":[228,53,66,241,266],"author_history":["bloody_disgrace"]},{"id":227,"uuid":"53ca25b3-61d9-4f72-bfdb-492b83484ff5","name":"Arnold Shoulder Press","exercise_base":20,"description":"<p>Very common shoulder exercise.</p>\n<p> </p>\n<p>As shown here: https://www.youtube.com/watch?v=vj2w851ZHRM</p>","creation_date":"2014-03-09","category":13,"muscles":[],"muscles_secondary":[],"equipment":[3],"language":2,"license":1,"license_author":"trzr23","variations":[227,329,256,190,152,155,123,119],"author_history":["trzr23"]},{"id":5,"uuid":"5675ae61-6597-4806-ae5c-2dda5a5ac03c","name":"Ausfallschritte im Gehen","exercise_base":206,"description":"<p>.</p>","creation_date":"2013-05-05","category":9,"muscles":[10],"muscles_secondary":[8],"equipment":[3],"language":1,"license":2,"license_author":"wger.de","variations":[55,5],"author_history":["wger.de"]},{"id":55,"uuid":"27301836-ed7f-4510-83e7-66c0b8041a44","name":"Ausfallschritte Stehend","exercise_base":205,"description":"<p>.</p>","creation_date":"2013-05-05","category":9,"muscles":[10],"muscles_secondary":[8],"equipment":[3],"language":1,"license":2,"license_author":"wger.de","variations":[55,5],"author_history":["wger.de"]},{"id":289,"uuid":"6add5973-86d0-4543-928a-6bb8b3f34efc","name":"Axe Hold","exercise_base":31,"description":"<p>Grab dumbbells and extend arms to side and hold as long as you can</p>","creation_date":"2014-11-02","category":8,"muscles":[],"muscles_secondary":[],"equipment":[3],"language":2,"license":1,"license_author":"GrosseHund","variations":[],"author_history":["GrosseHund"]},{"id":677,"uuid":"8e9d8968-323d-468c-9174-8cf11a105fad","name":"Axe Hold","exercise_base":31,"description":"<p>Nehmen Sie die Hanteln und strecken Sie die Arme zur Seite. Halten Sie sie so lange wie möglich.</p>","creation_date":"2020-01-16","category":8,"muscles":[],"muscles_secondary":[],"equipment":[3],"language":1,"license":2,"license_author":"Wunschcoach","variations":[],"author_history":["Wunschcoach"]},{"id":1051,"uuid":"52a4cc0b-6d56-479d-b3b3-4a6a390cc379","name":"Ball crunches","exercise_base":165,"description":"","creation_date":"2022-10-11","category":10,"muscles":[],"muscles_secondary":[],"equipment":[],"language":2,"license":2,"license_author":"","variations":[92,1051,94,1052,91,416,93,170,95,176],"author_history":[""]},{"id":38,"uuid":"4def60e7-ed8d-4a9d-bf76-ceb15ecf9779","name":"Bankdrücken Eng","exercise_base":76,"description":"<p>Lege dich auf die Bank, die Stange direkt über die Augen, die Knie etwas angewinkelt und die Füße fest auf dem Boden. Greife nun die Stange mit einem engen Griff (nicht mehr als 20cm.). Führe nun das Gewicht so weit nach unten, bis die Oberarme paralell zum Boden sind, gehe dann wieder nach obern. Bringe die Stange nicht wie beim (breiten) Bankdrücken auf Brusthöhe runter, sondern weiter unten. Auf der tiefsten Stelle sollten deine Arme einen rechten Winkel machen.</p>","creation_date":"2013-05-05","category":8,"muscles":[5],"muscles_secondary":[2,4],"equipment":[1,8],"language":1,"license":2,"license_author":"wger.de","variations":[77,15,38,17,720,725,41,16,61],"author_history":["wger.de"]},{"id":77,"uuid":"06450bcb-03a8-4bd7-8349-ef677ee57ea3","name":"Bankdrücken KH","exercise_base":75,"description":"<p>Der Bewegungsablauf ist ähnlich zur Übung mit einer Langhantel.</p>\n<p>Nehme die Gewichte in die Hände und lege dich auf die Bank. Halte die Hanteln neben der Brust auf Brustwarzenhöhe und drücke sie nun nach oben, bis die Arme ausgestreckt sind. Lasse die Gewichte nun langsam und kontrolliert runter.</p>\n<p> </p>","creation_date":"2013-05-05","category":11,"muscles":[4],"muscles_secondary":[2,5],"equipment":[8,3],"language":1,"license":2,"license_author":"wger.de","variations":[77,15,38,17,720,725,41,16,61],"author_history":["wger.de"]},{"id":15,"uuid":"198dcb2e-e35f-4b69-ae8b-e1124d438eae","name":"Bankdrücken LH","exercise_base":73,"description":"<p>Lege dich auf die Bank, die Stange direkt über die Augen, die Knie etwas angewinkelt und die Füße fest auf dem Boden. Greife die Stange breit und lasse sie langsam und kontrolliert runter, dabei sollte die Stange kurz auf Brustwarzenhöhe den Körper berühren. Dann das Gewicht wieder hochdrücken bis die Arme durchgestreckt sind.</p>\n<p>Bei hohem Gewicht, empfielt sich natürlich einen <em>Spotter</em> zu haben, der einen hilft falls man die Stange nicht alleine hochdrücken kann.</p>\n<p>Mit der Breite des Griffs kann außerdem kontrolliert werden, welcher Bereich der Brust stärker belastet wird:</p>\n<ul>\n<li>breiter Griff: äußere Brustmuskeln</li>\n<li>enger Griff: innere Brustmuskeln und Trizeps</li>\n</ul>","creation_date":"2013-05-05","category":11,"muscles":[4],"muscles_secondary":[2,5],"equipment":[1,8],"language":1,"license":2,"license_author":"wger.de","variations":[77,15,38,17,720,725,41,16,61],"author_history":["wger.de"]},{"id":343,"uuid":"1b9dc5bc-790b-4e21-a55d-f8b3115e94c5","name":"Barbell Ab Rollout","exercise_base":41,"description":"<p>Place a barbell on the floor at your feet.</p>\n<p>Bending at the waist, grip the barbell with a shoulder with overhand grip.</p>\n<p>With a slow controlled motion, roll the bar out so that your back is straight.</p>\n<p>Roll back up raising your hips and butt as you return to the starting position.</p>","creation_date":"2015-07-27","category":10,"muscles":[14],"muscles_secondary":[],"equipment":[1],"language":2,"license":2,"license_author":"sevae","variations":[],"author_history":["sevae"]},{"id":407,"uuid":"1215dad0-b7e0-42c6-80d4-112f69acb68a","name":"Barbell Hack Squats","exercise_base":43,"description":"<p>Perform leg squats with barbell behind your legs</p>","creation_date":"2016-07-30","category":9,"muscles":[],"muscles_secondary":[],"equipment":[1],"language":2,"license":2,"license_author":"BePieToday","variations":[407,342,300,650,191,389,355,160,570,795,185,111,387],"author_history":["BePieToday"]},{"id":405,"uuid":"ae6a6c23-4616-49b7-a152-49d7461c2b7f","name":"Barbell Lunges Standing","exercise_base":46,"description":"<p>Put barbell on the back of your shoulders. Stand upright, then take the first step forward. Step should bring you forward so that your supporting legs knee can touch the floor. Then stand back up and repeat with the other leg.</p>\n<p>Remember to keep good posture.</p>","creation_date":"2016-07-30","category":9,"muscles":[10],"muscles_secondary":[8],"equipment":[1],"language":2,"license":2,"license_author":"Mikko Ruohola","variations":[1053,405,112,113],"author_history":["Mikko Ruohola"]},{"id":1053,"uuid":"b368663d-f71f-4689-b462-76ac86a06362","name":"Barbell Lunges Walking","exercise_base":802,"description":"","creation_date":"2022-10-11","category":9,"muscles":[],"muscles_secondary":[],"equipment":[1],"language":2,"license":2,"license_author":"wger.de","variations":[1053,405,112,113],"author_history":["wger.de"]},{"id":759,"uuid":"95b25f5e-4a01-48f1-a3df-2b7fe8fd624d","name":"Barbell Reverse Wrist Curl","exercise_base":48,"description":"<p>Sitting on a bench, grab a barbell with your palms facing down and your hands shoulder-width apart. Rest your forearms on your thighs and allow your wrists to hang over your knees.</p>\n<p>Curl your knuckles towards your face, lifting the barbell. Pause for a moment in the top position, then slowly return the barbell to the starting position.</p>","creation_date":"2020-04-01","category":8,"muscles":[],"muscles_secondary":[],"equipment":[1,8],"language":2,"license":2,"license_author":"burenl","variations":[759,758],"author_history":["burenl"]},{"id":344,"uuid":"2cd5e256-20a7-4bc8-a7a8-d62bf8ce00cf","name":"Barbell Triceps Extension","exercise_base":50,"description":"<p>Position barbell overhead with narrow overhand grip.</p>\n<p>Lower forearm behind upper arm with elbows remaining overhead. Extend forearm overhead. Lower and repeat.</p>","creation_date":"2015-07-27","category":8,"muscles":[5],"muscles_secondary":[2,4],"equipment":[1],"language":2,"license":2,"license_author":"sevae","variations":[344,1055,274,89,90],"author_history":["sevae"]},{"id":758,"uuid":"0fe97ed6-7d37-444c-90b6-f855cea68a6f","name":"Barbell Wrist Curl","exercise_base":51,"description":"<p>Sitting on a bench, grab a barbell with your palms facing up and your hands shoulder-width apart. Rest your forearms on your thighs and allow your wrists to hang over your knees. Perform the movement by curling your palms and wrists towards your face.</p>\n<p>Pause for a moment in the top position, then slowly return the barbell to the starting position.</p>\n<p> </p>","creation_date":"2020-04-01","category":8,"muscles":[],"muscles_secondary":[],"equipment":[1,8],"language":2,"license":2,"license_author":"burenl","variations":[759,758],"author_history":["burenl"]}]}